…
## The three built-in methods

### 1. Partial matching (default)

Matches any medicine name containing all your search terms,
case-insensitive.

``` r
# Very forgiving
dmd_price_lookup("metformin", method = "partial")
#> # A tibble: 271 × 12
#>    medicine                     pack_size unit  vmp_snomed_code vmpp_snomed_code
#>    <chr>                            <dbl> <chr> <chr>           <chr>           
#>  1 Alogliptin 12.5mg / Metform…        56 tabl… 23637211000001… 236325110000011…
#>  2 Alogliptin 12.5mg / Metform…        56 tabl… 23637211000001… 236325110000011…
#>  3 Alogliptin 12.5mg / Metform…        56 tabl… 23637211000001… 236325110000011…
#>  4 Canagliflozin 50mg / Metfor…        60 tabl… 28049211000001… 280241110000011…
#>  5 Canagliflozin 50mg / Metfor…        60 tabl… 28049311000001… 280222110000011…
#>  6 Dapagliflozin 5mg / Metform…        56 tabl… 24054611000001… 240184110000011…
#>  7 Dapagliflozin 5mg / Metform…        56 tabl… 24054611000001… 240184110000011…
#>  8 Dapagliflozin 5mg / Metform…        56 tabl… 24054711000001… 240180110000011…
#>  9 Empagliflozin 12.5mg / Metf…        56 tabl… 30318111000001… 301756110000011…
#> 10 Empagliflozin 12.5mg / Metf…        60 tabl… 30318111000001… 378531110000011…
#> # ℹ 261 more rows
#> # ℹ 7 more variables: drug_tariff_category <chr>, basic_price <int>,
#> #   nhs_indicative_price <int>, price_basis <chr>, price_date <chr>,
#> #   ampp_name <chr>, ampp_snomed_code <chr>
```

**Use when:** - You don’t know the exact name - You want all related
products - Searching broad categories

### 2. Exact matching

Requires the full VMP (Virtual Medicinal Product) name.

``` r
# Strict—must match the canonical dm+d name exactly
dmd_price_lookup("Metformin 500mg tablets", method = "exact")
#> # A tibble: 49 × 12
#>    medicine                pack_size unit   vmp_snomed_code   vmpp_snomed_code
#>    <chr>                       <dbl> <chr>  <chr>             <chr>           
#>  1 Metformin 500mg tablets        28 tablet 42084911000001109 1320811000001101
#>  2 Metformin 500mg tablets        28 tablet 42084911000001109 1320811000001101
#>  3 Metformin 500mg tablets        28 tablet 42084911000001109 1320811000001101
#>  4 Metformin 500mg tablets        28 tablet 42084911000001109 1320811000001101
#>  5 Metformin 500mg tablets        28 tablet 42084911000001109 1320811000001101
#>  6 Metformin 500mg tablets        28 tablet 42084911000001109 1320811000001101
#>  7 Metformin 500mg tablets        28 tablet 42084911000001109 1320811000001101
#>  8 Metformin 500mg tablets        28 tablet 42084911000001109 1320811000001101
#>  9 Metformin 500mg tablets        28 tablet 42084911000001109 1320811000001101
#> 10 Metformin 500mg tablets        28 tablet 42084911000001109 1320811000001101
#> # ℹ 39 more rows
#> # ℹ 7 more variables: drug_tariff_category <chr>, basic_price <int>,
#> #   nhs_indicative_price <int>, price_basis <chr>, price_date <chr>,
#> #   ampp_name <chr>, ampp_snomed_code <chr>
```

**Use when:** - You have clean, standardized data - You want to avoid
false matches - Building reproducible workflows

### 3. Fuzzy matching

Uses Levenshtein distance to tolerate typos and minor variations.

``` r
# Tolerates ~2-3 character differences
dmd_price_lookup("metformin 500 mg tabets", method = "fuzzy", max_dist = 3)
#> # A tibble: 49 × 12
#>    medicine                pack_size unit   vmp_snomed_code   vmpp_snomed_code
#>    <chr>                       <dbl> <chr>  <chr>             <chr>           
#>  1 Metformin 500mg tablets        28 tablet 42084911000001109 1320811000001101
#>  2 Metformin 500mg tablets        28 tablet 42084911000001109 1320811000001101
#>  3 Metformin 500mg tablets        28 tablet 42084911000001109 1320811000001101
#>  4 Metformin 500mg tablets        28 tablet 42084911000001109 1320811000001101
#>  5 Metformin 500mg tablets        28 tablet 42084911000001109 1320811000001101
#>  6 Metformin 500mg tablets        28 tablet 42084911000001109 1320811000001101
#>  7 Metformin 500mg tablets        28 tablet 42084911000001109 1320811000001101
#>  8 Metformin 500mg tablets        28 tablet 42084911000001109 1320811000001101
#>  9 Metformin 500mg tablets        28 tablet 42084911000001109 1320811000001101
#> 10 Metformin 500mg tablets        28 tablet 42084911000001109 1320811000001101
#> # ℹ 39 more rows
#> # ℹ 7 more variables: drug_tariff_category <chr>, basic_price <int>,
#> #   nhs_indicative_price <int>, price_basis <chr>, price_date <chr>,
#> #   ampp_name <chr>, ampp_snomed_code <chr>
```
…
**Filter to the strength you want:**

``` r
# You specifically want 20mg tablets
target <- all_atorvastatin |>
  filter(
    str_detect(medicine, "20mg"),
    str_detect(medicine, "tablets")
  )

target |>
  select(medicine, basic_price)
#> # A tibble: 29 × 2
#>    medicine                                      basic_price
#>    <chr>                                               <int>
#>  1 Atorvastatin 20mg chewable tablets sugar free        2640
#>  2 Atorvastatin 20mg tablets                              62
#>  3 Atorvastatin 20mg tablets                              62
#>  4 Atorvastatin 20mg tablets                              62
#>  5 Atorvastatin 20mg tablets                              62
#>  6 Atorvastatin 20mg tablets                              62
#>  7 Atorvastatin 20mg tablets                              62
#>  8 Atorvastatin 20mg tablets                              62
#>  9 Atorvastatin 20mg tablets                              62
#> 10 Atorvastatin 20mg tablets                              62
#> # ℹ 19 more rows
```
…
``` r
# You want all ibuprofen products, but not creams/gels
all_ibuprofen <- dmd_price_lookup("ibuprofen", method = "partial")

# Filter to oral forms only
oral_ibuprofen <- all_ibuprofen |>
  filter(
    unit %in% c("tablet", "capsule", "liquid", "suspension"),
    !str_detect(str_to_lower(medicine), "cream|gel|topical|ointment")
  )

oral_ibuprofen |>
  select(medicine, pack_size, unit, basic_price) |>
  arrange(medicine)
#> # A tibble: 177 × 4
#>    medicine                                          pack_size unit  basic_price
#>    <chr>                                                 <dbl> <chr>       <int>
#>  1 Ibuprofen 100mg chewable capsules                        12 caps…         385
#>  2 Ibuprofen 200mg / Codeine 12.8mg tablets                 16 tabl…          NA
#>  3 Ibuprofen 200mg / Codeine 12.8mg tablets                 24 tabl…         634
#>  4 Ibuprofen 200mg / Codeine 12.8mg tablets                 32 tabl…         806
#>  5 Ibuprofen 200mg / Codeine 12.8mg tablets                 32 tabl…         806
#>  6 Ibuprofen 200mg / Phenylephrine 5mg tablets              16 tabl…          NA
#>  7 Ibuprofen 200mg / Pseudoephedrine hydrochloride …        12 tabl…         339
#>  8 Ibuprofen 200mg / Pseudoephedrine hydrochloride …        24 tabl…         521
#>  9 Ibuprofen 200mg capsules                                 10 caps…          NA
#> 10 Ibuprofen 200mg capsules                                 12 caps…          NA
#> # ℹ 167 more rows
```
…
