…
## Scenario: Tracking a medicine’s cost over time

Suppose you’re evaluating the cost of **metformin 500mg tablets** across
multiple years in your pharmacy budget.

### Step 1: Look up the current price

``` r
metformin <- dmd_price_lookup("metformin 500mg tablets", method = "exact")
metformin
#> # A tibble: 49 × 12
#>    medicine                pack_size unit   vmp_snomed_code   vmpp_snomed_code
#>    <chr>                       <dbl> <chr>  <chr>             <chr>           
#>  1 Metformin 500mg tablets        28 tablet 42084911000001109 1320811000001101
#>  2 Metformin 500mg tablets        28 tablet 42084911000001109 1320811000001101
#>  3 Metformin 500mg tablets        28 tablet 42084911000001109 1320811000001101
#>  4 Metformin 500mg tablets        28 tablet 42084911000001109 1320811000001101
#>  5 Metformin 500mg tablets        28 tablet 42084911000001109 1320811000001101
#>  6 Metformin 500mg tablets        28 tablet 42084911000001109 1320811000001101
#>  7 Metformin 500mg tablets        28 tablet 42084911000001109 1320811000001101
#>  8 Metformin 500mg tablets        28 tablet 42084911000001109 1320811000001101
#>  9 Metformin 500mg tablets        28 tablet 42084911000001109 1320811000001101
#> 10 Metformin 500mg tablets        28 tablet 42084911000001109 1320811000001101
#> # ℹ 39 more rows
#> # ℹ 7 more variables: drug_tariff_category <chr>, basic_price <int>,
#> #   nhs_indicative_price <int>, price_basis <chr>, price_date <chr>,
#> #   ampp_name <chr>, ampp_snomed_code <chr>
```
…
