…
## Matching medicines between sources

If you have a **Drug Tariff CSV** from NHS, use
[`dmd_price_lookup()`](https://w-hardy.github.io/dmdprices/reference/dmd_price_lookup.md)
to reconcile:

``` r
# Example: you have a list of medicine names from your pharmacy system
your_medicines <- c("Metformin 500mg tablets", "Lisinopril 10mg tablets")

# Look them up in dm+d
results <- lapply(your_medicines, dmd_price_lookup, method = "exact")
results
#> [[1]]
#> # A tibble: 49 × 12
#>    medicine                pack_size unit   vmp_snomed_code   vmpp_snomed_code
#>    <chr>                       <dbl> <chr>  <chr>             <chr>           
#>  1 Metformin 500mg tablets        28 tablet 42084911000001109 1320811000001101
#>  2 Metformin 500mg tablets        28 tablet 42084911000001109 1320811000001101
#>  3 Metformin 500mg tablets        28 tablet 42084911000001109 1320811000001101
#>  4 Metformin 500mg tablets        28 tablet 42084911000001109 1320811000001101
#>  5 Metformin 500mg tablets        28 tablet 42084911000001109 1320811000001101
#>  6 Metformin 500mg tablets        28 tablet 42084911000001109 1320811000001101
#>  7 Metformin 500mg tablets        28 tablet 42084911000001109 1320811000001101
#>  8 Metformin 500mg tablets        28 tablet 42084911000001109 1320811000001101
#>  9 Metformin 500mg tablets        28 tablet 42084911000001109 1320811000001101
#> 10 Metformin 500mg tablets        28 tablet 42084911000001109 1320811000001101
#> # ℹ 39 more rows
#> # ℹ 7 more variables: drug_tariff_category <chr>, basic_price <int>,
#> #   nhs_indicative_price <int>, price_basis <chr>, price_date <chr>,
#> #   ampp_name <chr>, ampp_snomed_code <chr>
…
### Fuzzy matching for typos/variations

If exact matches fail, use fuzzy matching:

``` r
# Your source data might have minor spelling variations
dmd_price_lookup("metformin 500 mg tablets", method = "fuzzy", max_dist = 3)
#> # A tibble: 82 × 12
#>    medicine                pack_size unit   vmp_snomed_code   vmpp_snomed_code
#>    <chr>                       <dbl> <chr>  <chr>             <chr>           
#>  1 Metformin 500mg tablets        28 tablet 42084911000001109 1320811000001101
#>  2 Metformin 500mg tablets        28 tablet 42084911000001109 1320811000001101
#>  3 Metformin 500mg tablets        28 tablet 42084911000001109 1320811000001101
#>  4 Metformin 500mg tablets        28 tablet 42084911000001109 1320811000001101
#>  5 Metformin 500mg tablets        28 tablet 42084911000001109 1320811000001101
#>  6 Metformin 500mg tablets        28 tablet 42084911000001109 1320811000001101
#>  7 Metformin 500mg tablets        28 tablet 42084911000001109 1320811000001101
#>  8 Metformin 500mg tablets        28 tablet 42084911000001109 1320811000001101
#>  9 Metformin 500mg tablets        28 tablet 42084911000001109 1320811000001101
#> 10 Metformin 500mg tablets        28 tablet 42084911000001109 1320811000001101
#> # ℹ 72 more rows
#> # ℹ 7 more variables: drug_tariff_category <chr>, basic_price <int>,
#> #   nhs_indicative_price <int>, price_basis <chr>, price_date <chr>,
#> #   ampp_name <chr>, ampp_snomed_code <chr>
```
…
