…
**Step 2: Check the exact dm+d name**

dm+d names follow a strict format: `Medicine Strength Unit`

``` r
# Search for similar names
dmd_price_lookup("aspirin", method = "partial") |>
  select(medicine) |>
  distinct()
#> # A tibble: 35 × 1
#>    medicine                         
#>    <chr>                            
#>  1 Aspirin 100mg/5ml oral solution  
#>  2 Aspirin 100mg/5ml oral suspension
#>  3 Aspirin 150mg suppositories      
#>  4 Aspirin 15mg/5ml oral solution   
#>  5 Aspirin 15mg/5ml oral suspension 
#>  6 Aspirin 225mg/5ml oral solution  
#>  7 Aspirin 225mg/5ml oral suspension
#>  8 Aspirin 25mg capsules            
#>  9 Aspirin 25mg/5ml oral solution   
#> 10 Aspirin 25mg/5ml oral suspension 
#> # ℹ 25 more rows
```
…
